{
  "definitions": {
    "Planning": {
      "properties": {
        "estimatedDate": {
          "title": "The tender estimated date",
          "description": "The estimated date for the tender.",
          "type": [
            "string",
            "null"
          ],
          "format": "date-time"
        }
      }
    }
  }
}
